8

14 11
15
1 4
7 3
13 1
12 2
4 2
5 2
4 0
2 7
7 7
11 1
0 4
3 3
1 7
11 7
5 3
2 1

11 9
9
3 0
1 3
9 7
1 0
1 6
5 5
7 8
6 1
3 8
17 10

7 15
6
4 13
5 14
1 7
2 6
1 13
1 10
10 2

11 8
12
8 4
2 5
0 6
0 1
5 3
6 3
4 2
6 4
10 1
4 5
7 6
3 5
11 6

6 12
20
3 5
3 5
3 6
5 4
4 11
0 4
0 5
2 8
0 4
1 8
0 10
1 8
5 3
0 3
2 5
4 10
4 11
3 10
5 2
0 2
17 7

8 9
20
5 2
2 2
2 6
1 6
6 7
6 3
3 6
7 2
7 3
3 8
1 0
1 7
6 8
2 8
6 1
3 0
3 1
6 1
0 1
3 4
9 2

15 14
14
1 9
3 0
12 11
5 5
3 3
6 6
11 1
4 8
9 7
8 9
1 5
3 2
13 8
7 1
9 6

13 13
20
4 2
1 4
3 6
3 12
6 1
10 3
1 11
4 10
12 10
1 4
2 12
10 11
3 3
8 8
11 8
5 8
5 5
10 10
0 10
9 7
20 6
