*** Life<Cell> 1x15 ***

Generation = 0, Population = 12.
00-0-00000000-0

*** Life<Cell> 10x1 ***

Generation = 0, Population = 9.
0
-
0
0
0
0
0
0
0
0

Generation = 12, Population = 1.
0
-
.
-
.
.
-
.
-
.

Generation = 24, Population = 1.
0
-
.
-
.
.
-
.
-
.

Generation = 36, Population = 1.
0
-
.
-
.
.
-
.
-
.

Generation = 48, Population = 1.
0
-
.
-
.
.
-
.
-
.

Generation = 60, Population = 1.
0
-
.
-
.
.
-
.
-
.

Generation = 72, Population = 1.
0
-
.
-
.
.
-
.
-
.

*** Life<Cell> 7x7 ***

Generation = 0, Population = 13.
-----00
-------
-----0-
0------
--0-0--
---0-00
000---0

Generation = 9, Population = 14.
*---.-.
-.-0**.
---1-1-
-0-1...
..-01.-
-.1*-*.
.-.*--.

Generation = 18, Population = 18.
*10..-.
***-...
...**..
****...
*.-.*.-
****-..
.......

Generation = 27, Population = 4.
..**.-.
..**...
.......
.......
..-...-
....-..
.......

Generation = 36, Population = 4.
..**.-.
..**...
.......
.......
..-...-
....-..
.......

Generation = 45, Population = 4.
..**.-.
..**...
.......
.......
..-...-
....-..
.......

Generation = 54, Population = 4.
..**.-.
..**...
.......
.......
..-...-
....-..
.......

Generation = 63, Population = 4.
..**.-.
..**...
.......
.......
..-...-
....-..
.......

Generation = 72, Population = 4.
..**.-.
..**...
.......
.......
..-...-
....-..
.......

Generation = 81, Population = 4.
..**.-.
..**...
.......
.......
..-...-
....-..
.......

Generation = 90, Population = 4.
..**.-.
..**...
.......
.......
..-...-
....-..
.......

Generation = 99, Population = 4.
..**.-.
..**...
.......
.......
..-...-
....-..
.......

*** Life<Cell> 9x4 ***

Generation = 0, Population = 14.
-0-0
00-0
-0--
----
-00-
----
0--0
--0-
000-

Generation = 10, Population = 9.
-...
*.1.
-..*
.*..
-..-
-..-
-...
*..*
*-*1

Generation = 20, Population = 8.
....
....
....
....
...-
**.-
**..
*.**
.-*-

Generation = 30, Population = 0.
....
....
....
....
...-
...-
....
....
...-

Generation = 40, Population = 0.
....
....
....
....
...-
...-
....
....
...-

Generation = 50, Population = 0.
....
....
....
....
...-
...-
....
....
...-

*** Life<Cell> 2x1 ***

Generation = 0, Population = 1.
0
-

*** Life<Cell> 14x6 ***

Generation = 0, Population = 5.
------
----0-
------
------
------
------
---0--
------
0-----
------
------
-0----
--0---
------

Generation = 18, Population = 38.
...-.1
*-*1.1
*.*..1
*11*.*
..-.1.
***1--
**..*.
*.-**.
..***.
-10*--
...*.*
.-.*.*
.1...*
-0--.*

Generation = 36, Population = 29.
...1..
..**..
..**..
......
......
***...
......
..0*..
.****.
.*...*
..*..*
.*...*
.*****
.****.

Generation = 54, Population = 4.
......
...**.
...**.
......
......
......
......
......
......
......
......
......
......
......

Generation = 72, Population = 4.
......
...**.
...**.
......
......
......
......
......
......
......
......
......
......
......

*** Life<Cell> 14x1 ***

Generation = 0, Population = 6.
-
0
0
0
0
-
-
-
-
0
0
-
-
-

Generation = 14, Population = 1.
.
.
.
.
.
-
-
-
.
1
-
.
-
-

Generation = 28, Population = 1.
.
.
.
.
.
-
-
-
.
1
-
.
-
-

Generation = 42, Population = 1.
.
.
.
.
.
-
-
-
.
1
-
.
-
-

*** Life<Cell> 9x4 ***

Generation = 0, Population = 6.
---0
-0--
0---
--0-
0---
--0-
----
----
----

Generation = 11, Population = 10.
.*-*
*1.*
.*.*
....
....
.-.*
.0..
-..-
--*.

Generation = 22, Population = 1.
....
....
....
....
....
.0..
.-..
-..-
--..

Generation = 33, Population = 1.
....
....
....
....
....
.-..
.0..
-..-
--..

*** Life<Cell> 11x3 ***

Generation = 0, Population = 11.
---
0--
--0
--0
00-
0-0
00-
---
---
---
-00

*** Life<Cell> 9x7 ***

Generation = 0, Population = 15.
-------
-------
00-----
----0--
0-----0
-0-00--
-0-----
0000---
-0----0

Generation = 12, Population = 23.
*****..
-....--
*.*11..
-*1..-*
--*1..-
..-...*
-..*.**
-...-.*
1..***-

Generation = 24, Population = 18.
.......
-...**-
....*.*
**....*
**...**
..-*.**
1...*..
....-..
-**....

Generation = 36, Population = 13.
....*..
-.**.**
....*..
.......
**.....
**.....
.......
**.....
-*.....

Generation = 48, Population = 16.
.......
-....**
......*
.....**
..*..**
..****.
.*.....
*......
**.....

Generation = 60, Population = 8.
.......
-......
.......
.......
....**.
....**.
.......
**.....
**.....

Generation = 72, Population = 8.
.......
-......
.......
.......
....**.
....**.
.......
**.....
**.....

Generation = 84, Population = 8.
.......
-......
.......
.......
....**.
....**.
.......
**.....
**.....
