10

1 15
19
0 6
0 7
0 12
0 5
0 7
0 10
0 9
0 14
0 8
0 5
0 10
0 1
0 11
0 10
0 5
0 3
0 0
0 1
0 0
7 18

10 1
16
5 0
7 0
3 0
3 0
9 0
7 0
7 0
5 0
0 0
5 0
6 0
4 0
0 0
5 0
8 0
2 0
81 12

7 7
14
0 6
5 3
2 5
6 6
6 1
0 5
6 2
5 5
3 0
4 4
6 0
4 2
5 3
5 6
100 9

9 4
17
6 3
7 2
2 1
8 0
4 2
1 3
8 2
8 1
1 1
1 3
1 3
0 1
0 3
4 2
6 0
1 0
4 1
52 10

2 1
3
0 0
0 0
0 0
2 11

14 6
5
1 4
8 0
12 2
11 1
6 3
84 18

14 1
7
2 0
3 0
2 0
10 0
4 0
9 0
1 0
46 14

9 4
7
0 3
4 0
0 3
2 0
3 2
1 1
5 2
42 11

11 3
15
4 1
10 2
4 0
10 2
3 2
5 0
10 1
1 0
5 2
6 0
6 1
6 1
2 2
6 1
5 0
5 13

9 7
18
7 0
4 0
5 1
5 4
8 1
5 3
7 3
8 6
7 1
2 1
2 0
6 1
4 6
5 4
5 1
7 2
3 4
7 2
90 12
