10

13 12
13
10 8
10 6
11 1
12 1
2 2
1 0
8 10
5 6
3 7
1 6
10 8
5 1
12 8
5 1

14 13
13
4 3
2 5
7 8
1 4
13 7
5 6
2 11
11 7
7 5
0 11
2 8
9 10
11 10
4 2

12 13
10
2 7
7 11
6 9
2 10
1 8
1 8
10 10
6 12
2 12
5 9
3 2

13 13
11
7 3
0 3
3 11
7 11
0 6
3 2
9 12
3 6
1 5
4 12
2 11
5 1

14 15
11
10 8
0 5
13 1
13 3
3 7
12 8
1 7
8 0
11 7
1 10
9 6
6 2

14 14
10
2 4
4 12
12 5
13 7
0 1
13 6
0 2
5 1
13 7
6 13
2 1

11 14
13
4 8
10 11
10 2
9 13
9 0
9 2
3 8
9 2
4 9
10 8
9 3
2 13
1 3
3 1

14 14
10
5 9
3 12
11 5
6 2
4 12
3 7
5 6
13 3
1 5
0 1
3 1

12 11
15
8 0
11 0
10 6
6 6
9 5
7 7
5 0
0 4
9 7
6 4
5 8
5 10
8 8
8 0
9 4
5 2

14 11
11
4 3
5 3
8 2
5 3
6 8
11 10
9 3
7 2
13 5
10 5
2 6
5 2
